{"page":1,"per_page":15,"photos":[{"id":8656897,"width":4000,"height":6000,"url":"https://www.pexels.com/photo/sea-beach-people-sand-8656897/","photographer":"Airam Dato-on","photographer_url":"https://www.pexels.com/@airamdphoto","photographer_id":373869,"avg_color":"#ADB9B9","src":{"original":"https://images.pexels.com/photos/8656897/pexels-photo-8656897.jpeg","large2x":"https://images.pexels.com/photos/8656897/pexels-photo-8656897.jpeg?auto=compress\u0026cs=tinysrgb\u0026dpr=2\u0026h=650\u0026w=940","large":"https://images.pexels.com/photos/8656897/pexels-photo-8656897.jpeg?auto=compress\u0026cs=tinysrgb\u0026h=650\u0026w=940","medium":"https://images.pexels.com/photos/8656897/pexels-photo-8656897.jpeg?auto=compress\u0026cs=tinysrgb\u0026h=350","small":"https://images.pexels.com/photos/8656897/pexels-photo-8656897.jpeg?auto=compress\u0026cs=tinysrgb\u0026h=130","portrait":"https://images.pexels.com/photos/8656897/pexels-photo-8656897.jpeg?auto=compress\u0026cs=tinysrgb\u0026fit=crop\u0026h=1200\u0026w=800","landscape":"https://images.pexels.com/photos/8656897/pexels-photo-8656897.jpeg?auto=compress\u0026cs=tinysrgb\u0026fit=crop\u0026h=627\u0026w=1200","tiny":"https://images.pexels.com/photos/8656897/pexels-photo-8656897.jpeg?auto=compress\u0026cs=tinysrgb\u0026dpr=1\u0026fit=crop\u0026h=200\u0026w=280"},"liked":false},{"id":8617430,"width":1915,"height":2553,"url":"https://www.pexels.com/photo/red-flowers-on-field-during-sunset-8617430/","photographer":"Sasha Maslova","photographer_url":"https://www.pexels.com/@sasha-maslova-70590142","photographer_id":70590142,"avg_color":"#80715E","src":{"original":"https://images.pexels.com/photos/8617430/pexels-photo-8617430.jpeg","large2x":"https://images.pexels.com/photos/8617430/pexels-photo-8617430.jpeg?auto=compress\u0026cs=tinysrgb\u0026dpr=2\u0026h=650\u0026w=940","large":"https://images.pexels.com/photos/8617430/pexels-photo-8617430.jpeg?auto=compress\u0026cs=tinysrgb\u0026h=650\u0026w=940","medium":"https://images.pexels.com/photos/8617430/pexels-photo-8617430.jpeg?auto=compress\u0026cs=tinysrgb\u0026h=350","small":"https://images.pexels.com/photos/8617430/pexels-photo-8617430.jpeg?auto=compress\u0026cs=tinysrgb\u0026h=130","portrait":"https://images.pexels.com/photos/8617430/pexels-photo-8617430.jpeg?auto=compress\u0026cs=tinysrgb\u0026fit=crop\u0026h=1200\u0026w=800","landscape":"https://images.pexels.com/photos/8617430/pexels-photo-8617430.jpeg?auto=compress\u0026cs=tinysrgb\u0026fit=crop\u0026h=627\u0026w=1200","tiny":"https://images.pexels.com/photos/8617430/pexels-photo-8617430.jpeg?auto=compress\u0026cs=tinysrgb\u0026dpr=1\u0026fit=crop\u0026h=200\u0026w=280"},"liked":false},{"id":8647586,"width":3640,"height":5464,"url":"https://www.pexels.com/photo/brown-wooden-dock-on-body-of-water-8647586/","photographer":"Maxim Kovalev","photographer_url":"https://www.pexels.com/@maxim-kovalev-77351469","photographer_id":77351469,"avg_color":"#62716E","src":{"original":"https://images.pexels.com/photos/8647586/pexels-photo-8647586.jpeg","large2x":"https://images.pexels.com/photos/8647586/pexels-photo-8647586.jpeg?auto=compress\u0026cs=tinysrgb\u0026dpr=2\u0026h=650\u0026w=940","large":"https://images.pexels.com/photos/8647586/pexels-photo-8647586.jpeg?auto=compress\u0026cs=tinysrgb\u0026h=650\u0026w=940","medium":"https://images.pexels.com/photos/8647586/pexels-photo-8647586.jpeg?auto=compress\u0026cs=tinysrgb\u0026h=350","small":"https://images.pexels.com/photos/8647586/pexels-photo-8647586.jpeg?auto=compress\u0026cs=tinysrgb\u0026h=130","portrait":"https://images.pexels.com/photos/8647586/pexels-photo-8647586.jpeg?auto=compress\u0026cs=tinysrgb\u0026fit=crop\u0026h=1200\u0026w=800","landscape":"https://images.pexels.com/photos/8647586/pexels-photo-8647586.jpeg?auto=compress\u0026cs=tinysrgb\u0026fit=crop\u0026h=627\u0026w=1200","tiny":"https://images.pexels.com/photos/8647586/pexels-photo-8647586.jpeg?auto=compress\u0026cs=tinysrgb\u0026dpr=1\u0026fit=crop\u0026h=200\u0026w=280"},"liked":false},{"id":2619263,"width":3230,"height":5982,"url":"https://www.pexels.com/photo/woman-in-white-tank-top-standing-beside-brown-wooden-door-2619263/","photographer":"Cristyan Bohn","photographer_url":"https://www.pexels.com/@cristyanbohn","photographer_id":1058207,"avg_color":"#B5666D","src":{"original":"https://images.pexels.com/photos/2619263/pexels-photo-2619263.jpeg","large2x":"https://images.pexels.com/photos/2619263/pexels-photo-2619263.jpeg?auto=compress\u0026cs=tinysrgb\u0026dpr=2\u0026h=650\u0026w=940","large":"https://images.pexels.com/photos/2619263/pexels-photo-2619263.jpeg?auto=compress\u0026cs=tinysrgb\u0026h=650\u0026w=940","medium":"https://images.pexels.com/photos/2619263/pexels-photo-2619263.jpeg?auto=compress\u0026cs=tinysrgb\u0026h=350","small":"https://images.pexels.com/photos/2619263/pexels-photo-2619263.jpeg?auto=compress\u0026cs=tinysrgb\u0026h=130","portrait":"https://images.pexels.com/photos/2619263/pexels-photo-2619263.jpeg?auto=compress\u0026cs=tinysrgb\u0026fit=crop\u0026h=1200\u0026w=800","landscape":"https://images.pexels.com/photos/2619263/pexels-photo-2619263.jpeg?auto=compress\u0026cs=tinysrgb\u0026fit=crop\u0026h=627\u0026w=1200","tiny":"https://images.pexels.com/photos/2619263/pexels-photo-2619263.jpeg?auto=compress\u0026cs=tinysrgb\u0026dpr=1\u0026fit=crop\u0026h=200\u0026w=280"},"liked":false},{"id":7113845,"width":4000,"height":6000,"url":"https://www.pexels.com/photo/green-and-white-bokeh-lights-7113845/","photographer":"Raka Miftah","photographer_url":"https://www.pexels.com/@rkftr","photographer_id":1378809,"avg_color":"#212C2D","src":{"original":"https://images.pexels.com/photos/7113845/pexels-photo-7113845.jpeg","large2x":"https://images.pexels.com/photos/7113845/pexels-photo-7113845.jpeg?auto=compress\u0026cs=tinysrgb\u0026dpr=2\u0026h=650\u0026w=940","large":"https://images.pexels.com/photos/7113845/pexels-photo-7113845.jpeg?auto=compress\u0026cs=tinysrgb\u0026h=650\u0026w=940","medium":"https://images.pexels.com/photos/7113845/pexels-photo-7113845.jpeg?auto=compress\u0026cs=tinysrgb\u0026h=350","small":"https://images.pexels.com/photos/7113845/pexels-photo-7113845.jpeg?auto=compress\u0026cs=tinysrgb\u0026h=130","portrait":"https://images.pexels.com/photos/7113845/pexels-photo-7113845.jpeg?auto=compress\u0026cs=tinysrgb\u0026fit=crop\u0026h=1200\u0026w=800","landscape":"https://images.pexels.com/photos/7113845/pexels-photo-7113845.jpeg?auto=compress\u0026cs=tinysrgb\u0026fit=crop\u0026h=627\u0026w=1200","tiny":"https://images.pexels.com/photos/7113845/pexels-photo-7113845.jpeg?auto=compress\u0026cs=tinysrgb\u0026dpr=1\u0026fit=crop\u0026h=200\u0026w=280"},"liked":false},{"id":8624764,"width":3840,"height":5760,"url":"https://www.pexels.com/photo/black-bicycle-on-gray-concrete-floor-8624764/","photographer":"Yura Forrat","photographer_url":"https://www.pexels.com/@yuraforrat","photographer_id":76944072,"avg_color":"#3B4346","src":{"original":"https://images.pexels.com/photos/8624764/pexels-photo-8624764.jpeg","large2x":"https://images.pexels.com/photos/8624764/pexels-photo-8624764.jpeg?auto=compress\u0026cs=tinysrgb\u0026dpr=2\u0026h=650\u0026w=940","large":"https://images.pexels.com/photos/8624764/pexels-photo-8624764.jpeg?auto=compress\u0026cs=tinysrgb\u0026h=650\u0026w=940","medium":"https://images.pexels.com/photos/8624764/pexels-photo-8624764.jpeg?auto=compress\u0026cs=tinysrgb\u0026h=350","small":"https://images.pexels.com/photos/8624764/pexels-photo-8624764.jpeg?auto=compress\u0026cs=tinysrgb\u0026h=130","portrait":"https://images.pexels.com/photos/8624764/pexels-photo-8624764.jpeg?auto=compress\u0026cs=tinysrgb\u0026fit=crop\u0026h=1200\u0026w=800","landscape":"https://images.pexels.com/photos/8624764/pexels-photo-8624764.jpeg?auto=compress\u0026cs=tinysrgb\u0026fit=crop\u0026h=627\u0026w=1200","tiny":"https://images.pexels.com/photos/8624764/pexels-photo-8624764.jpeg?auto=compress\u0026cs=tinysrgb\u0026dpr=1\u0026fit=crop\u0026h=200\u0026w=280"},"liked":false},{"id":8624947,"width":3383,"height":5075,"url":"https://www.pexels.com/photo/person-holding-silver-diamond-ring-8624947/","photographer":"Yura Forrat","photographer_url":"https://www.pexels.com/@yuraforrat","photographer_id":76944072,"avg_color":"#969497","src":{"original":"https://images.pexels.com/photos/8624947/pexels-photo-8624947.jpeg","large2x":"https://images.pexels.com/photos/8624947/pexels-photo-8624947.jpeg?auto=compress\u0026cs=tinysrgb\u0026dpr=2\u0026h=650\u0026w=940","large":"https://images.pexels.com/photos/8624947/pexels-photo-8624947.jpeg?auto=compress\u0026cs=tinysrgb\u0026h=650\u0026w=940","medium":"https://images.pexels.com/photos/8624947/pexels-photo-8624947.jpeg?auto=compress\u0026cs=tinysrgb\u0026h=350","small":"https://images.pexels.com/photos/8624947/pexels-photo-8624947.jpeg?auto=compress\u0026cs=tinysrgb\u0026h=130","portrait":"https://images.pexels.com/photos/8624947/pexels-photo-8624947.jpeg?auto=compress\u0026cs=tinysrgb\u0026fit=crop\u0026h=1200\u0026w=800","landscape":"https://images.pexels.com/photos/8624947/pexels-photo-8624947.jpeg?auto=compress\u0026cs=tinysrgb\u0026fit=crop\u0026h=627\u0026w=1200","tiny":"https://images.pexels.com/photos/8624947/pexels-photo-8624947.jpeg?auto=compress\u0026cs=tinysrgb\u0026dpr=1\u0026fit=crop\u0026h=200\u0026w=280"},"liked":false},{"id":8602145,"width":3179,"height":4768,"url":"https://www.pexels.com/photo/woman-in-gray-long-sleeve-shirt-and-black-pants-sitting-on-wooden-dock-8602145/","photographer":"Ivan Xolod","photographer_url":"https://www.pexels.com/@ivanxolod","photographer_id":73724754,"avg_color":"#8E8E8E","src":{"original":"https://images.pexels.com/photos/8602145/pexels-photo-8602145.jpeg","large2x":"https://images.pexels.com/photos/8602145/pexels-photo-8602145.jpeg?auto=compress\u0026cs=tinysrgb\u0026dpr=2\u0026h=650\u0026w=940","large":"https://images.pexels.com/photos/8602145/pexels-photo-8602145.jpeg?auto=compress\u0026cs=tinysrgb\u0026h=650\u0026w=940","medium":"https://images.pexels.com/photos/8602145/pexels-photo-8602145.jpeg?auto=compress\u0026cs=tinysrgb\u0026h=350","small":"https://images.pexels.com/photos/8602145/pexels-photo-8602145.jpeg?auto=compress\u0026cs=tinysrgb\u0026h=130","portrait":"https://images.pexels.com/photos/8602145/pexels-photo-8602145.jpeg?auto=compress\u0026cs=tinysrgb\u0026fit=crop\u0026h=1200\u0026w=800","landscape":"https://images.pexels.com/photos/8602145/pexels-photo-8602145.jpeg?auto=compress\u0026cs=tinysrgb\u0026fit=crop\u0026h=627\u0026w=1200","tiny":"https://images.pexels.com/photos/8602145/pexels-photo-8602145.jpeg?auto=compress\u0026cs=tinysrgb\u0026dpr=1\u0026fit=crop\u0026h=200\u0026w=280"},"liked":false},{"id":8602180,"width":3053,"height":4580,"url":"https://www.pexels.com/photo/landscape-fashion-beach-people-8602180/","photographer":"Ivan Xolod","photographer_url":"https://www.pexels.com/@ivanxolod","photographer_id":73724754,"avg_color":"#565251","src":{"original":"https://images.pexels.com/photos/8602180/pexels-photo-8602180.jpeg","large2x":"https://images.pexels.com/photos/8602180/pexels-photo-8602180.jpeg?auto=compress\u0026cs=tinysrgb\u0026dpr=2\u0026h=650\u0026w=940","large":"https://images.pexels.com/photos/8602180/pexels-photo-8602180.jpeg?auto=compress\u0026cs=tinysrgb\u0026h=650\u0026w=940","medium":"https://images.pexels.com/photos/8602180/pexels-photo-8602180.jpeg?auto=compress\u0026cs=tinysrgb\u0026h=350","small":"https://images.pexels.com/photos/8602180/pexels-photo-8602180.jpeg?auto=compress\u0026cs=tinysrgb\u0026h=130","portrait":"https://images.pexels.com/photos/8602180/pexels-photo-8602180.jpeg?auto=compress\u0026cs=tinysrgb\u0026fit=crop\u0026h=1200\u0026w=800","landscape":"https://images.pexels.com/photos/8602180/pexels-photo-8602180.jpeg?auto=compress\u0026cs=tinysrgb\u0026fit=crop\u0026h=627\u0026w=1200","tiny":"https://images.pexels.com/photos/8602180/pexels-photo-8602180.jpeg?auto=compress\u0026cs=tinysrgb\u0026dpr=1\u0026fit=crop\u0026h=200\u0026w=280"},"liked":false},{"id":8602183,"width":3264,"height":4896,"url":"https://www.pexels.com/photo/sea-man-beach-people-8602183/","photographer":"Ivan Xolod","photographer_url":"https://www.pexels.com/@ivanxolod","photographer_id":73724754,"avg_color":"#8A8A8A","src":{"original":"https://images.pexels.com/photos/8602183/pexels-photo-8602183.jpeg","large2x":"https://images.pexels.com/photos/8602183/pexels-photo-8602183.jpeg?auto=compress\u0026cs=tinysrgb\u0026dpr=2\u0026h=650\u0026w=940","large":"https://images.pexels.com/photos/8602183/pexels-photo-8602183.jpeg?auto=compress\u0026cs=tinysrgb\u0026h=650\u0026w=940","medium":"https://images.pexels.com/photos/8602183/pexels-photo-8602183.jpeg?auto=compress\u0026cs=tinysrgb\u0026h=350","small":"https://images.pexels.com/photos/8602183/pexels-photo-8602183.jpeg?auto=compress\u0026cs=tinysrgb\u0026h=130","portrait":"https://images.pexels.com/photos/8602183/pexels-photo-8602183.jpeg?auto=compress\u0026cs=tinysrgb\u0026fit=crop\u0026h=1200\u0026w=800","landscape":"https://images.pexels.com/photos/8602183/pexels-photo-8602183.jpeg?auto=compress\u0026cs=tinysrgb\u0026fit=crop\u0026h=627\u0026w=1200","tiny":"https://images.pexels.com/photos/8602183/pexels-photo-8602183.jpeg?auto=compress\u0026cs=tinysrgb\u0026dpr=1\u0026fit=crop\u0026h=200\u0026w=280"},"liked":false},{"id":8585444,"width":2923,"height":3897,"url":"https://www.pexels.com/photo/sunset-man-beach-people-8585444/","photographer":"Ivan Xolod","photographer_url":"https://www.pexels.com/@ivanxolod","photographer_id":73724754,"avg_color":"#446576","src":{"original":"https://images.pexels.com/photos/8585444/pexels-photo-8585444.jpeg","large2x":"https://images.pexels.com/photos/8585444/pexels-photo-8585444.jpeg?auto=compress\u0026cs=tinysrgb\u0026dpr=2\u0026h=650\u0026w=940","large":"https://images.pexels.com/photos/8585444/pexels-photo-8585444.jpeg?auto=compress\u0026cs=tinysrgb\u0026h=650\u0026w=940","medium":"https://images.pexels.com/photos/8585444/pexels-photo-8585444.jpeg?auto=compress\u0026cs=tinysrgb\u0026h=350","small":"https://images.pexels.com/photos/8585444/pexels-photo-8585444.jpeg?auto=compress\u0026cs=tinysrgb\u0026h=130","portrait":"https://images.pexels.com/photos/8585444/pexels-photo-8585444.jpeg?auto=compress\u0026cs=tinysrgb\u0026fit=crop\u0026h=1200\u0026w=800","landscape":"https://images.pexels.com/photos/8585444/pexels-photo-8585444.jpeg?auto=compress\u0026cs=tinysrgb\u0026fit=crop\u0026h=627\u0026w=1200","tiny":"https://images.pexels.com/photos/8585444/pexels-photo-8585444.jpeg?auto=compress\u0026cs=tinysrgb\u0026dpr=1\u0026fit=crop\u0026h=200\u0026w=280"},"liked":false},{"id":8579688,"width":3456,"height":5184,"url":"https://www.pexels.com/photo/green-and-red-flower-plants-8579688/","photographer":"Elena Koloskova","photographer_url":"https://www.pexels.com/@elena-koloskova-75706594","photographer_id":75706594,"avg_color":"#282D31","src":{"original":"https://images.pexels.com/photos/8579688/pexels-photo-8579688.jpeg","large2x":"https://images.pexels.com/photos/8579688/pexels-photo-8579688.jpeg?auto=compress\u0026cs=tinysrgb\u0026dpr=2\u0026h=650\u0026w=940","large":"https://images.pexels.com/photos/8579688/pexels-photo-8579688.jpeg?auto=compress\u0026cs=tinysrgb\u0026h=650\u0026w=940","medium":"https://images.pexels.com/photos/8579688/pexels-photo-8579688.jpeg?auto=compress\u0026cs=tinysrgb\u0026h=350","small":"https://images.pexels.com/photos/8579688/pexels-photo-8579688.jpeg?auto=compress\u0026cs=tinysrgb\u0026h=130","portrait":"https://images.pexels.com/photos/8579688/pexels-photo-8579688.jpeg?auto=compress\u0026cs=tinysrgb\u0026fit=crop\u0026h=1200\u0026w=800","landscape":"https://images.pexels.com/photos/8579688/pexels-photo-8579688.jpeg?auto=compress\u0026cs=tinysrgb\u0026fit=crop\u0026h=627\u0026w=1200","tiny":"https://images.pexels.com/photos/8579688/pexels-photo-8579688.jpeg?auto=compress\u0026cs=tinysrgb\u0026dpr=1\u0026fit=crop\u0026h=200\u0026w=280"},"liked":false},{"id":8579819,"width":3456,"height":5184,"url":"https://www.pexels.com/photo/person-holding-white-candle-lantern-8579819/","photographer":"Elena Koloskova","photographer_url":"https://www.pexels.com/@elena-koloskova-75706594","photographer_id":75706594,"avg_color":"#393939","src":{"original":"https://images.pexels.com/photos/8579819/pexels-photo-8579819.jpeg","large2x":"https://images.pexels.com/photos/8579819/pexels-photo-8579819.jpeg?auto=compress\u0026cs=tinysrgb\u0026dpr=2\u0026h=650\u0026w=940","large":"https://images.pexels.com/photos/8579819/pexels-photo-8579819.jpeg?auto=compress\u0026cs=tinysrgb\u0026h=650\u0026w=940","medium":"https://images.pexels.com/photos/8579819/pexels-photo-8579819.jpeg?auto=compress\u0026cs=tinysrgb\u0026h=350","small":"https://images.pexels.com/photos/8579819/pexels-photo-8579819.jpeg?auto=compress\u0026cs=tinysrgb\u0026h=130","portrait":"https://images.pexels.com/photos/8579819/pexels-photo-8579819.jpeg?auto=compress\u0026cs=tinysrgb\u0026fit=crop\u0026h=1200\u0026w=800","landscape":"https://images.pexels.com/photos/8579819/pexels-photo-8579819.jpeg?auto=compress\u0026cs=tinysrgb\u0026fit=crop\u0026h=627\u0026w=1200","tiny":"https://images.pexels.com/photos/8579819/pexels-photo-8579819.jpeg?auto=compress\u0026cs=tinysrgb\u0026dpr=1\u0026fit=crop\u0026h=200\u0026w=280"},"liked":false},{"id":8580325,"width":3456,"height":5184,"url":"https://www.pexels.com/photo/brown-wooden-frame-with-light-8580325/","photographer":"Elena Koloskova","photographer_url":"https://www.pexels.com/@elena-koloskova-75706594","photographer_id":75706594,"avg_color":"#1B1C1E","src":{"original":"https://images.pexels.com/photos/8580325/pexels-photo-8580325.jpeg","large2x":"https://images.pexels.com/photos/8580325/pexels-photo-8580325.jpeg?auto=compress\u0026cs=tinysrgb\u0026dpr=2\u0026h=650\u0026w=940","large":"https://images.pexels.com/photos/8580325/pexels-photo-8580325.jpeg?auto=compress\u0026cs=tinysrgb\u0026h=650\u0026w=940","medium":"https://images.pexels.com/photos/8580325/pexels-photo-8580325.jpeg?auto=compress\u0026cs=tinysrgb\u0026h=350","small":"https://images.pexels.com/photos/8580325/pexels-photo-8580325.jpeg?auto=compress\u0026cs=tinysrgb\u0026h=130","portrait":"https://images.pexels.com/photos/8580325/pexels-photo-8580325.jpeg?auto=compress\u0026cs=tinysrgb\u0026fit=crop\u0026h=1200\u0026w=800","landscape":"https://images.pexels.com/photos/8580325/pexels-photo-8580325.jpeg?auto=compress\u0026cs=tinysrgb\u0026fit=crop\u0026h=627\u0026w=1200","tiny":"https://images.pexels.com/photos/8580325/pexels-photo-8580325.jpeg?auto=compress\u0026cs=tinysrgb\u0026dpr=1\u0026fit=crop\u0026h=200\u0026w=280"},"liked":false},{"id":8570119,"width":2976,"height":3958,"url":"https://www.pexels.com/photo/yellow-flowers-near-body-of-water-8570119/","photographer":"Магомед  Шапиев","photographer_url":"https://www.pexels.com/@74512442","photographer_id":74512442,"avg_color":"#9F8D75","src":{"original":"https://images.pexels.com/photos/8570119/pexels-photo-8570119.jpeg","large2x":"https://images.pexels.com/photos/8570119/pexels-photo-8570119.jpeg?auto=compress\u0026cs=tinysrgb\u0026dpr=2\u0026h=650\u0026w=940","large":"https://images.pexels.com/photos/8570119/pexels-photo-8570119.jpeg?auto=compress\u0026cs=tinysrgb\u0026h=650\u0026w=940","medium":"https://images.pexels.com/photos/8570119/pexels-photo-8570119.jpeg?auto=compress\u0026cs=tinysrgb\u0026h=350","small":"https://images.pexels.com/photos/8570119/pexels-photo-8570119.jpeg?auto=compress\u0026cs=tinysrgb\u0026h=130","portrait":"https://images.pexels.com/photos/8570119/pexels-photo-8570119.jpeg?auto=compress\u0026cs=tinysrgb\u0026fit=crop\u0026h=1200\u0026w=800","landscape":"https://images.pexels.com/photos/8570119/pexels-photo-8570119.jpeg?auto=compress\u0026cs=tinysrgb\u0026fit=crop\u0026h=627\u0026w=1200","tiny":"https://images.pexels.com/photos/8570119/pexels-photo-8570119.jpeg?auto=compress\u0026cs=tinysrgb\u0026dpr=1\u0026fit=crop\u0026h=200\u0026w=280"},"liked":false}],"total_results":8000,"next_page":"https://api.pexels.com/v1/curated/?page=2\u0026per_page=15"}